appendix.knit
…
  Appendix

Appendix

Load the FiveThirtyEight president polls from https://projects.fivethirtyeight.com/polls/data/president_polls.csv
into an object called president_polls. Remove polls that
are not part of the 2024 president elections. Keep only the polls that
are “general” elections and target a specific state. Also, only keep
polls that have Biden or Trump as the candidate.

president_polls <- read_csv("https://projects.fivethirtyeight.com/polls/data/president_polls.csv")
president_polls <- president_polls |> filter(cycle == 2024 & stage == "general" & !is.na(state) & candidate_name %in% c("Joe Biden", "Donald Trump"))
president_polls

## # A tibble: 306 × 42
##    poll_id pollster_id pollster  spons…¹ spons…² displ…³ polls…⁴ polls…⁵ fte_g…⁶
##      <dbl>       <dbl> <chr>       <dbl> <chr>   <chr>     <dbl> <chr>   <chr>  
##  1   81693        1672 Victory …      NA <NA>    Victor…     673 Victor… <NA>   
##  2   81693        1672 Victory …      NA <NA>    Victor…     673 Victor… <NA>   
##  3   81693        1672 Victory …      NA <NA>    Victor…     673 Victor… <NA>   
##  4   81636         460 SurveyUSA     761 WNYT-TV Survey…     325 Survey… A      
##  5   81636         460 SurveyUSA     761 WNYT-TV Survey…     325 Survey… A      
##  6   81625        1477 Targoz M…    1477 PollSm… Targoz…     454 Targoz… B/C    
##  7   81625        1477 Targoz M…    1477 PollSm… Targoz…     454 Targoz… B/C    
##  8   81625        1477 Targoz M…    1477 PollSm… Targoz…     454 Targoz… B/C    
##  9   81625        1477 Targoz M…    1477 PollSm… Targoz…     454 Targoz… B/C    
## 10   81626        1477 Targoz M…    1477 PollSm… Targoz…     454 Targoz… B/C    
## # … with 296 more rows, 33 more variables: methodology <chr>, state <chr>,
## #   start_date <chr>, end_date <chr>, sponsor_candidate_id <dbl>,
## #   sponsor_candidate <chr>, sponsor_candidate_party <chr>, question_id <dbl>,
## #   sample_size <dbl>, population <chr>, subpopulation <lgl>,
## #   population_full <chr>, tracking <lgl>, created_at <chr>, notes <chr>,
## #   url <chr>, source <dbl>, internal <lgl>, partisan <chr>, race_id <dbl>,
## #   cycle <dbl>, office_type <chr>, seat_number <dbl>, seat_name <lgl>, …

Look at a table of the fte_grade given to each of the
polls. Filter the president_polls data set to keep only
polls with a grade in the top 10 grades, up to C.

president_polls <- president_polls |> filter(fte_grade <= "C" | fte_grade == "C+")
president_polls

## # A tibble: 258 × 42
##    poll_id pollster_id pollster  spons…¹ spons…² displ…³ polls…⁴ polls…⁵ fte_g…⁶
##      <dbl>       <dbl> <chr>       <dbl> <chr>   <chr>     <dbl> <chr>   <chr>  
##  1   81636         460 SurveyUSA     761 WNYT-TV Survey…     325 Survey… A      
##  2   81636         460 SurveyUSA     761 WNYT-TV Survey…     325 Survey… A      
##  3   81625        1477 Targoz M…    1477 PollSm… Targoz…     454 Targoz… B/C    
##  4   81625        1477 Targoz M…    1477 PollSm… Targoz…     454 Targoz… B/C    
##  5   81625        1477 Targoz M…    1477 PollSm… Targoz…     454 Targoz… B/C    
##  6   81625        1477 Targoz M…    1477 PollSm… Targoz…     454 Targoz… B/C    
##  7   81626        1477 Targoz M…    1477 PollSm… Targoz…     454 Targoz… B/C    
##  8   81626        1477 Targoz M…    1477 PollSm… Targoz…     454 Targoz… B/C    
##  9   81626        1477 Targoz M…    1477 PollSm… Targoz…     454 Targoz… B/C    
## 10   81626        1477 Targoz M…    1477 PollSm… Targoz…     454 Targoz… B/C    
## # … with 248 more rows, 33 more variables: methodology <chr>, state <chr>,
## #   start_date <chr>, end_date <chr>, sponsor_candidate_id <dbl>,
## #   sponsor_candidate <chr>, sponsor_candidate_party <chr>, question_id <dbl>,
## #   sample_size <dbl>, population <chr>, subpopulation <lgl>,
## #   population_full <chr>, tracking <lgl>, created_at <chr>, notes <chr>,
## #   url <chr>, source <dbl>, internal <lgl>, partisan <chr>, race_id <dbl>,
## #   cycle <dbl>, office_type <chr>, seat_number <dbl>, seat_name <lgl>, …

Make a table showing how many states have available poll data and
what race_id is it.

temp <- president_polls |> distinct(across(c(race_id, state, candidate_id)))
temp <- temp |> group_by(race_id, state) |> summarize(candidates = length(candidate_id))
temp

## # A tibble: 32 × 3
## # Groups:   race_id [32]
##    race_id state       candidates
##      <dbl> <chr>            <int>
##  1    8755 Arkansas             2
##  2    8759 Arizona              2
##  3    8765 Colorado             2
##  4    8768 Connecticut          2
##  5    8778 Florida              2
##  6    8781 Georgia              2
##  7    8788 Iowa                 2
##  8    8794 Illinois             2
##  9    8800 Kansas               2
## 10    8806 Louisiana            2
## # … with 22 more rows
…
president_polls["candidate_name"][president_polls["candidate_name"] == "Joe Biden"] = "Biden"
president_polls["candidate_name"][president_polls["candidate_name"] == "Donald Trump"] = "Trump"

Identify the columns we need to remove for pivot_wider
to work and remove them. After removing these columns, use
pivot_wider to create columns called Biden and
Trump for the Democrat and Republican poll percentage,
respectively.

president_polls <- president_polls |> select(c(-answer, -candidate_id, -party)) |> pivot_wider(names_from = "candidate_name", values_from = "pct")
president_polls

## # A tibble: 142 × 39
##    poll_id pollster_id pollster  spons…¹ spons…² displ…³ polls…⁴ polls…⁵ fte_g…⁶
##      <dbl>       <dbl> <chr>       <dbl> <chr>   <chr>     <dbl> <chr>   <chr>  
##  1   81636         460 SurveyUSA     761 WNYT-TV Survey…     325 Survey… A      
##  2   81625        1477 Targoz M…    1477 PollSm… Targoz…     454 Targoz… B/C    
##  3   81625        1477 Targoz M…    1477 PollSm… Targoz…     454 Targoz… B/C    
##  4   81626        1477 Targoz M…    1477 PollSm… Targoz…     454 Targoz… B/C    
##  5   81626        1477 Targoz M…    1477 PollSm… Targoz…     454 Targoz… B/C    
##  6   81627        1477 Targoz M…    1477 PollSm… Targoz…     454 Targoz… B/C    
##  7   81627        1477 Targoz M…    1477 PollSm… Targoz…     454 Targoz… B/C    
##  8   81628        1477 Targoz M…    1477 PollSm… Targoz…     454 Targoz… B/C    
##  9   81628        1477 Targoz M…    1477 PollSm… Targoz…     454 Targoz… B/C    
## 10   81544        1102 Emerson …      NA <NA>    Emerso…      88 Emerso… A-     
## # … with 132 more rows, 30 more variables: methodology <chr>, state <chr>,
## #   start_date <chr>, end_date <chr>, sponsor_candidate_id <dbl>,
## #   sponsor_candidate <chr>, sponsor_candidate_party <chr>, question_id <dbl>,
## #   sample_size <dbl>, population <chr>, subpopulation <lgl>,
## #   population_full <chr>, tracking <lgl>, created_at <chr>, notes <chr>,
## #   url <chr>, source <dbl>, internal <lgl>, partisan <chr>, race_id <dbl>,
## #   cycle <dbl>, office_type <chr>, seat_number <dbl>, seat_name <lgl>, …

Notice that there are some rows that either miss record for the
supporting rate for Biden or the supporting rate for Trump. Let’s show
these rows.

temp <- president_polls |> filter(is.na(Biden) | is.na(Trump)) |> select(pollster_id, question_id, Biden, Trump)
temp

## # A tibble: 26 × 4
##    pollster_id question_id Biden Trump
##          <dbl>       <dbl> <dbl> <dbl>
##  1         383      163416  NA    42  
##  2        1102      163285  37.6  NA  
##  3         458      161811  43.6  NA  
##  4         458      161813  NA    45.6
##  5        1102      161438  38.4  NA  
##  6        1302      161201  43    NA  
##  7        1302      161203  42    NA  
##  8        1302      161204  47    NA  
##  9        1302      161205  39    NA  
## 10        1302      161206  33    NA  
## # … with 16 more rows
According to the above table, we can see that it is the different
question_id that prevent the rows from merging. Since there are not too
many rows affected by this and there are only the supporting rate for
Biden for most rows, I decide to remove all rows with missing supporting
rate for either candidate.

president_polls <- president_polls |> filter(!is.na(Biden) & !is.na(Trump))

Now define a new column spread as
(Biden-Trump)/100.

president_polls <- president_polls |> mutate(spread = (Biden - Trump) / 100)
president_polls

## # A tibble: 116 × 40
##    poll_id pollster_id pollster  spons…¹ spons…² displ…³ polls…⁴ polls…⁵ fte_g…⁶
##      <dbl>       <dbl> <chr>       <dbl> <chr>   <chr>     <dbl> <chr>   <chr>  
##  1   81636         460 SurveyUSA     761 WNYT-TV Survey…     325 Survey… A      
##  2   81625        1477 Targoz M…    1477 PollSm… Targoz…     454 Targoz… B/C    
##  3   81625        1477 Targoz M…    1477 PollSm… Targoz…     454 Targoz… B/C    
##  4   81626        1477 Targoz M…    1477 PollSm… Targoz…     454 Targoz… B/C    
##  5   81626        1477 Targoz M…    1477 PollSm… Targoz…     454 Targoz… B/C    
##  6   81627        1477 Targoz M…    1477 PollSm… Targoz…     454 Targoz… B/C    
##  7   81627        1477 Targoz M…    1477 PollSm… Targoz…     454 Targoz… B/C    
##  8   81628        1477 Targoz M…    1477 PollSm… Targoz…     454 Targoz… B/C    
##  9   81628        1477 Targoz M…    1477 PollSm… Targoz…     454 Targoz… B/C    
## 10   81544        1102 Emerson …      NA <NA>    Emerso…      88 Emerso… A-     
## # … with 106 more rows, 31 more variables: methodology <chr>, state <chr>,
## #   start_date <chr>, end_date <chr>, sponsor_candidate_id <dbl>,
## #   sponsor_candidate <chr>, sponsor_candidate_party <chr>, question_id <dbl>,
## #   sample_size <dbl>, population <chr>, subpopulation <lgl>,
## #   population_full <chr>, tracking <lgl>, created_at <chr>, notes <chr>,
## #   url <chr>, source <dbl>, internal <lgl>, partisan <chr>, race_id <dbl>,
## #   cycle <dbl>, office_type <chr>, seat_number <dbl>, seat_name <lgl>, …

Use the mdy function in the lubridate
package to mutate the start and end date columns in place to be Dates
instead of characters.

president_polls["start_date"] <- mdy(president_polls$start_date)
president_polls["end_date"] <- mdy(president_polls$end_date)
president_polls

## # A tibble: 116 × 40
##    poll_id pollster_id pollster  spons…¹ spons…² displ…³ polls…⁴ polls…⁵ fte_g…⁶
##      <dbl>       <dbl> <chr>       <dbl> <chr>   <chr>     <dbl> <chr>   <chr>  
##  1   81636         460 SurveyUSA     761 WNYT-TV Survey…     325 Survey… A      
##  2   81625        1477 Targoz M…    1477 PollSm… Targoz…     454 Targoz… B/C    
##  3   81625        1477 Targoz M…    1477 PollSm… Targoz…     454 Targoz… B/C    
##  4   81626        1477 Targoz M…    1477 PollSm… Targoz…     454 Targoz… B/C    
##  5   81626        1477 Targoz M…    1477 PollSm… Targoz…     454 Targoz… B/C    
##  6   81627        1477 Targoz M…    1477 PollSm… Targoz…     454 Targoz… B/C    
##  7   81627        1477 Targoz M…    1477 PollSm… Targoz…     454 Targoz… B/C    
##  8   81628        1477 Targoz M…    1477 PollSm… Targoz…     454 Targoz… B/C    
##  9   81628        1477 Targoz M…    1477 PollSm… Targoz…     454 Targoz… B/C    
## 10   81544        1102 Emerson …      NA <NA>    Emerso…      88 Emerso… A-     
## # … with 106 more rows, 31 more variables: methodology <chr>, state <chr>,
## #   start_date <date>, end_date <date>, sponsor_candidate_id <dbl>,
## #   sponsor_candidate <chr>, sponsor_candidate_party <chr>, question_id <dbl>,
## #   sample_size <dbl>, population <chr>, subpopulation <lgl>,
## #   population_full <chr>, tracking <lgl>, created_at <chr>, notes <chr>,
## #   url <chr>, source <dbl>, internal <lgl>, partisan <chr>, race_id <dbl>,
## #   cycle <dbl>, office_type <chr>, seat_number <dbl>, seat_name <lgl>, …

Now let’s see how many polls we have for each state.

president_polls |> group_by(state) |> summarize(count = length(state)) |> arrange(-count)

## # A tibble: 32 × 2
##    state          count
##    <chr>          <int>
##  1 Georgia            9
##  2 Missouri           8
##  3 Arizona            7
##  4 New Hampshire      7
##  5 Ohio               7
##  6 Pennsylvania       7
##  7 Florida            6
##  8 Iowa               6
##  9 New York           6
## 10 North Carolina     6
## # … with 22 more rows
…
According to the plots above, we can see that Trump is
leading Biden in all states except New Hampshire when it come to the
midterm election

Now calculate the mean and the standard deviation of the spread for
each state. Since there are still two years before the 2024 presidential
election and I do not have a lot of polls for some states, I decide to
keep all the states that I have at least two polls available.

results <- president_polls |> group_by(race_id, state) |> summarize(average = mean(spread), standard_deviation = sd(spread), count = length(unique(poll_id))) |> select(race_id, state, average, standard_deviation, count) |> filter(count > 1)
results 

## # A tibble: 23 × 5
## # Groups:   race_id [23]
##    race_id state         average standard_deviation count
##      <dbl> <chr>           <dbl>              <dbl> <int>
##  1    8759 Arizona       -0.0477             0.0620     6
##  2    8765 Colorado       0.085              0.0184     2
##  3    8768 Connecticut    0.118              0.0210     3
##  4    8778 Florida       -0.0145             0.0540     6
##  5    8781 Georgia       -0.0503             0.0403     8
##  6    8788 Iowa          -0.114              0.0219     6
##  7    8794 Illinois       0.112              0.0195     3
##  8    8800 Kansas        -0.135              0.0240     3
##  9    8811 Massachusetts  0.251              0.0442     3
## 10    8820 Michigan      -0.0275             0.0672     4
## # … with 13 more rows
…
Our table of interest is the fourth table, so we extract it below and
do some modifications.

votes <- html_table(nodes[[4]], header = TRUE) |> select(2, 3)
colnames(votes)[1] <- 'state'
colnames(votes)[2] <- 'electoral_votes'
votes

## # A tibble: 50 × 2
##    state          electoral_votes
##    <chr>                    <int>
##  1 California                  54
##  2 Texas                       40
##  3 Florida                     30
##  4 New York                    28
##  5 Illinois                    19
##  6 Pennsylvania                19
##  7 Ohio                        17
##  8 Georgia                     16
##  9 North Carolina              16
## 10 Michigan                    15
## # … with 40 more rows

The table above does not include District of Columbia, which has 3
electoral votes, so I add it into the table.

add <- data.frame("District of Columbia", 3)
names(add)=c("state","electoral_votes")
votes <- votes |> rbind(add) |> arrange(-electoral_votes, state)
votes

## # A tibble: 51 × 2
##    state          electoral_votes
##    <chr>                    <dbl>
##  1 California                  54
##  2 Texas                       40
##  3 Florida                     30
##  4 New York                    28
##  5 Illinois                    19
##  6 Pennsylvania                19
##  7 Ohio                        17
##  8 Georgia                     16
##  9 North Carolina              16
## 10 Michigan                    15
## # … with 41 more rows

Let’s see how many electoral votes will be needed to win the 2024
presidential election.

total <- sum(votes$electoral_votes)
print(paste(total %/% 2 + 1, " electoral votes are needed to win the 2024 presidential election"))

## [1] "270  electoral votes are needed to win the 2024 presidential election"

Join this table and the “results” table above.

results <- left_join(results, votes, by = "state")
results

## # A tibble: 23 × 6
## # Groups:   race_id [23]
##    race_id state         average standard_deviation count electoral_votes
##      <dbl> <chr>           <dbl>              <dbl> <int>           <dbl>
##  1    8759 Arizona       -0.0477             0.0620     6              11
##  2    8765 Colorado       0.085              0.0184     2              10
##  3    8768 Connecticut    0.118              0.0210     3               7
##  4    8778 Florida       -0.0145             0.0540     6              30
##  5    8781 Georgia       -0.0503             0.0403     8              16
##  6    8788 Iowa          -0.114              0.0219     6               6
##  7    8794 Illinois       0.112              0.0195     3              19
##  8    8800 Kansas        -0.135              0.0240     3               6
##  9    8811 Massachusetts  0.251              0.0442     3              11
## 10    8820 Michigan      -0.0275             0.0672     4              15
## # … with 13 more rows
…
mu <- 0.00
tau <- 0.04
results_no_bias <- results |> mutate(prior_average = mu, 
                             prior_sd = tau, 
                             sigma = standard_deviation/sqrt(count),
                             B = sigma^2 / (sigma^2 + tau^2),
                             posterior_mean = B * mu + (1 - B) * average,
                             posterior_sd = sqrt(1/ (1/sigma^2 + 1/tau^2)),
                             Biden_win_prob = 1-pnorm(0, posterior_mean, posterior_sd)) |> select(-sigma, -B)
results_no_bias

## # A tibble: 23 × 11
## # Groups:   race_id [23]
##    race_id state   average stand…¹ count elect…² prior…³ prior…⁴ poste…⁵ poste…⁶
##      <dbl> <chr>     <dbl>   <dbl> <int>   <dbl>   <dbl>   <dbl>   <dbl>   <dbl>
##  1    8759 Arizona -0.0477  0.0620     6      11       0    0.04 -0.0341 0.0214 
##  2    8765 Colora…  0.085   0.0184     2      10       0    0.04  0.0769 0.0124 
##  3    8768 Connec…  0.118   0.0210     3       7       0    0.04  0.108  0.0116 
##  4    8778 Florida -0.0145  0.0540     6      30       0    0.04 -0.0111 0.0193 
##  5    8781 Georgia -0.0503  0.0403     8      16       0    0.04 -0.0447 0.0134 
##  6    8788 Iowa    -0.114   0.0219     6       6       0    0.04 -0.109  0.00872
##  7    8794 Illino…  0.112   0.0195     3      19       0    0.04  0.104  0.0108 
##  8    8800 Kansas  -0.135   0.0240     3       6       0    0.04 -0.120  0.0131 
##  9    8811 Massac…  0.251   0.0442     3      11       0    0.04  0.178  0.0215 
## 10    8820 Michig… -0.0275  0.0672     4      15       0    0.04 -0.0161 0.0257 
## # … with 13 more rows, 1 more variable: Biden_win_prob <dbl>, and abbreviated
## #   variable names ¹​standard_deviation, ²​electoral_votes, ³​prior_average,
## #   ⁴​prior_sd, ⁵​posterior_mean, ⁶​posterior_sd

Show a table of states with the probability (in percentages) of the
Biden winning ordered by that probability. If a probability is larger
than 99%, show >99%, and if smaller than 1% then show <1%.

temp <- results_no_bias |> select(state, Biden_win_prob) |> mutate(Biden_win = paste(as.character(round(100 * Biden_win_prob, 2)), "%")) |> arrange(-Biden_win_prob)
temp["Biden_win"][temp["Biden_win_prob"] > 0.99] <- "> 99 %"
temp["Biden_win"][temp["Biden_win_prob"] < 0.01] <- "< 1 %"
temp |> select(state, Biden_win)

## # A tibble: 23 × 3
## # Groups:   race_id [23]
##    race_id state         Biden_win
##      <dbl> <chr>         <chr>    
##  1    8768 Connecticut   > 99 %   
##  2    8794 Illinois      > 99 %   
##  3    8811 Massachusetts > 99 %   
##  4    8877 Rhode Island  > 99 %   
##  5    8765 Colorado      > 99 %   
##  6    8854 New Mexico    > 99 %   
##  7    8860 New York      > 99 %   
##  8    8869 Oregon        > 99 %   
##  9    8848 New Hampshire > 99 %   
## 10    8905 Wisconsin     40.14 %  
## # … with 13 more rows
…
