results.knit
…
Information about the electoral votes for each state is needed
and the information is on a table of a website.

Information about the party affiliation of each state is needed
and the information is on a table of a website.

As an illustration of the data wrangling process, below are the 2024
presidential election poll data before and after the data wrangling
process.

The 2024 presidential election before the data wrangling
process

## # A tibble: 1,171 × 42
##    poll_id pollster_id pollster  spons…¹ spons…² displ…³ polls…⁴ polls…⁵ fte_g…⁶
##      <dbl>       <dbl> <chr>       <dbl> <chr>   <chr>     <dbl> <chr>   <chr>  
##  1   81695        1726 Premise        NA <NA>    Premise     709 Premise <NA>   
##  2   81695        1726 Premise        NA <NA>    Premise     709 Premise <NA>   
##  3   81695        1726 Premise        NA <NA>    Premise     709 Premise <NA>   
##  4   81695        1726 Premise        NA <NA>    Premise     709 Premise <NA>   
##  5   81694        1102 Emerson …      NA <NA>    Emerso…      88 Emerso… A-     
##  6   81694        1102 Emerson …      NA <NA>    Emerso…      88 Emerso… A-     
##  7   81694        1102 Emerson …      NA <NA>    Emerso…      88 Emerso… A-     
##  8   81694        1102 Emerson …      NA <NA>    Emerso…      88 Emerso… A-     
##  9   81694        1102 Emerson …      NA <NA>    Emerso…      88 Emerso… A-     
## 10   81694        1102 Emerson …      NA <NA>    Emerso…      88 Emerso… A-     
## # … with 1,161 more rows, 33 more variables: methodology <chr>, state <chr>,
## #   start_date <chr>, end_date <chr>, sponsor_candidate_id <dbl>,
## #   sponsor_candidate <chr>, sponsor_candidate_party <chr>, question_id <dbl>,
## #   sample_size <dbl>, population <chr>, subpopulation <lgl>,
## #   population_full <chr>, tracking <lgl>, created_at <chr>, notes <chr>,
## #   url <chr>, source <dbl>, internal <lgl>, partisan <chr>, race_id <dbl>,
## #   cycle <dbl>, office_type <chr>, seat_number <dbl>, seat_name <lgl>, …

The 2024 presidential election after the data wrangling
process

## # A tibble: 116 × 40
##    poll_id pollster_id pollster  spons…¹ spons…² displ…³ polls…⁴ polls…⁵ fte_g…⁶
##      <dbl>       <dbl> <chr>       <dbl> <chr>   <chr>     <dbl> <chr>   <chr>  
##  1   81636         460 SurveyUSA     761 WNYT-TV Survey…     325 Survey… A      
##  2   81625        1477 Targoz M…    1477 PollSm… Targoz…     454 Targoz… B/C    
##  3   81625        1477 Targoz M…    1477 PollSm… Targoz…     454 Targoz… B/C    
##  4   81626        1477 Targoz M…    1477 PollSm… Targoz…     454 Targoz… B/C    
##  5   81626        1477 Targoz M…    1477 PollSm… Targoz…     454 Targoz… B/C    
##  6   81627        1477 Targoz M…    1477 PollSm… Targoz…     454 Targoz… B/C    
##  7   81627        1477 Targoz M…    1477 PollSm… Targoz…     454 Targoz… B/C    
##  8   81628        1477 Targoz M…    1477 PollSm… Targoz…     454 Targoz… B/C    
##  9   81628        1477 Targoz M…    1477 PollSm… Targoz…     454 Targoz… B/C    
## 10   81544        1102 Emerson …      NA <NA>    Emerso…      88 Emerso… A-     
## # … with 106 more rows, 31 more variables: methodology <chr>, state <chr>,
## #   start_date <date>, end_date <date>, sponsor_candidate_id <dbl>,
## #   sponsor_candidate <chr>, sponsor_candidate_party <chr>, question_id <dbl>,
## #   sample_size <dbl>, population <chr>, subpopulation <lgl>,
## #   population_full <chr>, tracking <lgl>, created_at <chr>, notes <chr>,
## #   url <chr>, source <dbl>, internal <lgl>, partisan <chr>, race_id <dbl>,
## #   cycle <dbl>, office_type <chr>, seat_number <dbl>, seat_name <lgl>, …
…
It merges the rows of Biden and Trump of each polls into one row
and creates a new column that shows the spread of the supporting rate
between Biden and Trump.

It clears all rows that does not have both the supporting rate of
Biden and Trump.

Besides, below were the electoral votes for each state and the party
affiliation of each state table that I got after applying web
scraping

The electoral votes for each state table

## # A tibble: 51 × 2
##    state          electoral_votes
##    <chr>                    <dbl>
##  1 California                  54
##  2 Texas                       40
##  3 Florida                     30
##  4 New York                    28
##  5 Illinois                    19
##  6 Pennsylvania                19
##  7 Ohio                        17
##  8 Georgia                     16
##  9 North Carolina              16
## 10 Michigan                    15
## # … with 41 more rows

In this table, each row shows a state and the electoral votes it has
in the 2024 presidential election.

The party affiliation for each state table

## # A tibble: 51 × 5
##    state                Rep   None  Dem   affiliation
##    <chr>                <chr> <chr> <chr> <chr>      
##  1 Alabama              52%   13%   35%   R          
##  2 Alaska               39%   29%   32%   R          
##  3 Arizona              40%   21%   39%   R          
##  4 Arkansas             46%   16%   38%   R          
##  5 California           30%   21%   49%   B          
##  6 Colorado             41%   17%   42%   B          
##  7 Connecticut          32%   18%   50%   B          
##  8 Delaware             29%   17%   55%   B          
##  9 District of Columbia 11%   15%   73%   B          
## 10 Florida              37%   19%   44%   B          
## # … with 41 more rows
…
